
<svg xmlns="http://www.w3.org/2000/svg" width="147" height="140" viewBox="0 0 147 140">
    <defs>
        <linearGradient id="a" x1="-.002%" x2="100.051%" y1="50%" y2="50%">
            <stop offset="1%" stop-color="#EF9E11" stop-opacity=".05"/>
            <stop offset="100%" stop-color="#BA5320" stop-opacity=".3"/>
        </linearGradient>
        <radialGradient id="b" cx="33.384%" cy="37.56%" r="68.606%" fx="33.384%" fy="37.56%" gradientTransform="matrix(.86279 0 0 1 .046 0)">
            <stop offset="1%" stop-color="#FFF"/>
            <stop offset="81%" stop-color="#FFF" stop-opacity="0"/>
        </radialGradient>
        <linearGradient id="c" x1="-.017%" y1="50.008%" y2="50.008%">
            <stop offset="1%" stop-color="#EF9E11" stop-opacity=".05"/>
            <stop offset="100%" stop-color="#BA5320" stop-opacity=".3"/>
        </linearGradient>
        <linearGradient id="d" x1=".005%" x2="99.977%" y1="49.988%" y2="49.988%">
            <stop offset="1%" stop-color="#1B2246" stop-opacity=".1"/>
            <stop offset="100%" stop-color="#1B2246" stop-opacity=".2"/>
        </linearGradient>
        <linearGradient id="e" x1=".134%" x2="100.114%" y1="49.99%" y2="49.99%">
            <stop offset="0%" stop-color="#FF585B" stop-opacity="0"/>
            <stop offset="9%" stop-color="#F65356" stop-opacity=".13"/>
            <stop offset="32%" stop-color="#E0484A" stop-opacity=".44"/>
            <stop offset="53%" stop-color="#CF3F41" stop-opacity=".68"/>
            <stop offset="72%" stop-color="#C2383B" stop-opacity=".85"/>
            <stop offset="88%" stop-color="#BB3436" stop-opacity=".96"/>
            <stop offset="99%" stop-color="#B83335"/>
        </linearGradient>
        <linearGradient id="f" x1=".009%" x2="100.013%" y1="50.004%" y2="50.004%">
            <stop offset="0%" stop-color="#FF585B" stop-opacity="0"/>
            <stop offset="9%" stop-color="#F65356" stop-opacity=".13"/>
            <stop offset="32%" stop-color="#E0484A" stop-opacity=".44"/>
            <stop offset="53%" stop-color="#CF3F41" stop-opacity=".68"/>
            <stop offset="72%" stop-color="#C2383B" stop-opacity=".85"/>
            <stop offset="88%" stop-color="#BB3436" stop-opacity=".96"/>
            <stop offset="99%" stop-color="#B83335"/>
        </linearGradient>
        <linearGradient id="g" x1="7.159%" x2="83.473%" y1="-98.884%" y2="152.862%">
            <stop offset="15%" stop-color="#D9936C" stop-opacity="0"/>
            <stop offset="99%" stop-color="#A6515A"/>
        </linearGradient>
        <linearGradient id="h" x1="0%" x2="99.97%" y1="50.379%" y2="50.379%">
            <stop offset="15%" stop-color="#D9936C" stop-opacity="0"/>
            <stop offset="99%" stop-color="#A6515A"/>
        </linearGradient>
        <linearGradient id="i" x1="0%" x2="99.999%" y1="49.745%" y2="49.745%">
            <stop offset="15%" stop-color="#D9936C" stop-opacity="0"/>
            <stop offset="99%" stop-color="#A6515A"/>
        </linearGradient>
        <linearGradient id="j" x1=".053%" x2="99.997%" y1="49.998%" y2="49.998%">
            <stop offset="15%" stop-color="#D9936C" stop-opacity="0"/>
            <stop offset="99%" stop-color="#A6515A"/>
        </linearGradient>
        <linearGradient id="k" x1=".173%" x2="100.08%" y1="49.609%" y2="49.609%">
            <stop offset="15%" stop-color="#D9936C" stop-opacity="0"/>
            <stop offset="99%" stop-color="#A6515A"/>
        </linearGradient>
        <linearGradient id="l" x1="73.284%" x2="-18.781%" y1="44.531%" y2="54.116%">
            <stop offset="0%" stop-color="#FF585B" stop-opacity="0"/>
            <stop offset="9%" stop-color="#F65356" stop-opacity=".13"/>
            <stop offset="32%" stop-color="#E0484A" stop-opacity=".44"/>
            <stop offset="53%" stop-color="#CF3F41" stop-opacity=".68"/>
            <stop offset="72%" stop-color="#C2383B" stop-opacity=".85"/>
            <stop offset="88%" stop-color="#BB3436" stop-opacity=".96"/>
            <stop offset="99%" stop-color="#B83335"/>
        </linearGradient>
        <linearGradient id="m" x1="85.164%" x2="26.748%" y1="84.109%" y2="-7.143%">
            <stop offset="15%" stop-color="#D9936C" stop-opacity="0"/>
            <stop offset="99%" stop-color="#A6515A"/>
        </linearGradient>
        <linearGradient id="n" x1="41.658%" x2="64.227%" y1="87.394%" y2="24.531%">
            <stop offset="15%" stop-color="#D9936C" stop-opacity="0"/>
            <stop offset="99%" stop-color="#A6515A"/>
        </linearGradient>
        <linearGradient id="o" x1="-73.876%" x2="136.077%" y1="59.751%" y2="47.446%">
            <stop offset="7%" stop-color="#D9936C" stop-opacity="0"/>
            <stop offset="99%" stop-color="#A6515A"/>
        </linearGradient>
    </defs>
    <g fill="none" fill-rule="evenodd" transform="translate(-1 -5)">
        <path fill="url(#a)" fill-rule="nonzero" d="M50.785.055a14.22 14.22 0 0 1 2.5 1.775c1.955 1.7 3.655 3.87 5.29 5.875 3.97 4.845 8.5 9.205 12.955 13.625 1.58 1.56 3.16 3.125 4.705 4.72.115.115.225.235.345.36 5.77 6 11.14 12.61 14.205 20.345a33.35 33.35 0 0 1 2.265 16.37 24.5 24.5 0 0 1-2.55 8.315c-1.845 3.5-4.555 6.5-7.345 9.325-4.255 4.315-8.825 8.42-14.17 11.28-3.575 1.91-7.44 3.23-10.92 5.305-3.2 1.91-6 4.415-9 6.66-5.445 4.105-11.435 7.315-17.675 10.07-6.045 2.67-12.32 4.93-18.54 7.15-2.205.77-4.6 1.71-5.85 3.705-.85 1.33-1.075 2.96-1.27 4.525l-.23 1.645a68.47 68.47 0 0 1-4.08-2.195c-.235-.13-.46-.275-.685-.415-.77-3.74-.575-7.9-.265-11.73.28-3.375.585-6.84 2.105-9.86 1.84-3.63 5.22-6.2 8.6-8.475C16.445 94.88 22 91.725 27.5 88.5c4-2.335 8-4.695 11.87-7.265C48.5 75.155 57.135 67.71 62.29 58A27.525 27.525 0 0 0 65 51c.54-2.8.67-5.663.385-8.5a54.136 54.136 0 0 0-.53-4.41C63.24 27.84 59 18.08 54.535 8.64c-.825-1.755-1.68-3.53-3-4.94-1.13-1.19-2.555-2.07-3.88-3.045l3.13-.6z" opacity=".32" transform="translate(35 6)"/>
        <path fill="#FFD4D8" fill-rule="nonzero" d="M129.2 112.96a69.595 69.595 0 0 1-23.15 21.95c-.94.555-1.9 1.085-2.875 1.58a68.905 68.905 0 0 1-29.675 7.755c-2.175.07-4.315.04-6.45-.085a68.85 68.85 0 0 1-26.55-7.055 68.47 68.47 0 0 1-4.08-2.195c-.235-.13-.46-.275-.685-.415-28.599-17.077-41-52.087-29.526-83.358C17.682 19.866 49.783 1.183 82.64 6.655c1.915.31 3.81.71 5.67 1.175a67.33 67.33 0 0 1 5.24 1.565 67.39 67.39 0 0 1 9.915 4.26 64.4 64.4 0 0 1 3.62 2.055 69.3 69.3 0 0 1 22.115 97.25z"/>
        <path fill="url(#b)" fill-rule="nonzero" d="M85.785 6.055l7.765 3.34 9.915 4.26a51.145 51.145 0 0 1 3.815 6.395 50.78 50.78 0 0 1 4.315 12.345A51.405 51.405 0 0 1 62.5 94.5h-1.225c-28.407 0-51.44-23.018-51.46-51.425v-.155C23.703 16.365 53.079 1.736 82.64 6.655l3.145-.6z" opacity=".91"/>
        <path fill="url(#c)" fill-rule="nonzero" d="M125.295 40.225a73.79 73.79 0 0 1-9.72 13.395c-5.305 5.715-11.605 10.225-19.09 12.5-5.63 1.73-11.76 2.14-17.605 3.145-5.15.89-10.08 2.245-14.24 5.36a20.84 20.84 0 0 0-3 2.755c-6.285 6.9-7.935 17.47-7.71 27.075v.095c.195 8 1.275 16.17.625 24.085a68.85 68.85 0 0 1-30.635-9.225c-.235-.13-.46-.275-.685-.415a69.5 69.5 0 0 1-22-20.865c-1.61-7-1.045-14.31 2.585-20.555 2.79-4.79 6.775-8.265 11.45-10.96 9-5.18 20.555-7.405 30.815-10.4 14.76-4.29 29.1-11.76 38.61-23.84a47.474 47.474 0 0 0 2.68-3.77 47.5 47.5 0 0 0 6.7-16.775 42.33 42.33 0 0 0 .73-7.265 42.355 42.355 0 0 0-.195-4.34 69.32 69.32 0 0 1 30.685 40z" opacity=".32" transform="translate(12.5 15.5)"/>
        <circle cx="42.015" cy="40.4" r="17.265" fill="#00CCB1" fill-rule="nonzero"/>
        <path stroke="#FFF" stroke-width="1.315" d="M34.53 39.55l5.565 6.82 10.59-10.77"/>
        <path fill="#1B2246" fill-rule="nonzero" d="M29.56 48.95s10.94 65.55 20.865 75.01l7.95-3L32.54 48.45l-2.98.5z"/>
        <path stroke="#1B2246" stroke-width="2.425" d="M45.21 109s-1.865 19.935-4.655 22.725c-2.79 2.79.745 3 6.705 2.61 5.96-.39 10.62-.185 10.62-.185"/>
        <path fill="#FF8A90" fill-rule="nonzero" d="M106.055 134.91H36.42a69.345 69.345 0 0 0 66.76 1.59l2.875-1.59z"/>
        <path fill="url(#d)" fill-rule="nonzero" d="M140.725 75.175c-3.55-5.265-10-7.725-14.615-12.07A23.33 23.33 0 0 1 118.84 46c.07-4.695 1.16-10.42-2.605-13.215-1.165-.865-2.615-1.245-3.84-2-4.185-2.63-4.72-8.925-8.795-11.73-4.32-3-10.5-1-15.175 1.38a19.28 19.28 0 0 0-8.275 8.02c-.935 1.785-1.725 3.765-1.665 5.815.055 1.97 1.135 3.61 1.785 5.415.615 1.715 1.135 3-1.235 5.25a13.5 13.5 0 0 0 5.695-4.645c0 .42-.035.84-.05 1.26-.215 1.935-.925 7.35-2.225 8.915-.605.725 1.655.915 2.37.96.063 1.09.14 2.178.23 3.265h-.05c.003.01.003.02 0 .03v.125a3.89 3.89 0 0 0 .075.8c0 .14.04.28.055.415.045.425.1.835.15 1.23 0 .155.045.31.07.46.025.15.04.415.065.62.031.594.182 1.176.445 1.71.675 1.17 2.215 1.5 3.565 1.5a15.89 15.89 0 0 0 5.895-1.085l.11.145h-.345l.54.26.65.855a12.915 12.915 0 0 1 2.195 3.72L96.94 67.25a14.37 14.37 0 0 1-.695 2.15 12.16 12.16 0 0 0-2.17.385l-.34.2a4.5 4.5 0 0 0 .645 3.05c-2.615 4.31-6.5 8.665-9.095 11.85-2.5 3.09-3.62 6.76-3.77 10.74a15.5 15.5 0 0 0 1.575 7.62l-.125-.185-.08-.095c1.25 2.42 3 5.19 4.11 8.04.41 1.188.733 2.405.965 3.64 0 .13.035.265.05.395.275 3.185.39 7.08-.1 9.735-.065.31-.12.625-.195.935-3.225.115-6.465.175-9.385.955-1.86.5-3.78.96-5.7.84l-.175.395a2.875 2.875 0 0 0-.275-.295c-1.5-1.4-4.255-2.38-6.3-2.5-3-.14-5.9 1.5-8.465 3.08a27.71 27.71 0 0 0-3.83 3c-.61.545-1.21 1.095-1.83 1.625-.62.53-1.22.83-1.74 1.33l.14.14c.265.06.5.105.755.15l-.62.26.37.095a71.565 71.565 0 0 0 17.88 1.58c.216.01.43-.035.625-.13.535-.325.34-1.15 0-1.68l-.05-.07a2.59 2.59 0 0 0 .455-.05h.04a4.665 4.665 0 0 0 2.53-1.11 9.5 9.5 0 0 1 1.33-.44c5.93-.795 12.885 1.955 18.89 1.58 2.36-.15 4.61-.365 6.81-.66v.27a13.67 13.67 0 0 1-.275 1.58c.975-.5 1.93-1.03 2.875-1.58.5-.3 1-.615 1.53-.925.45-.277.895-.56 1.335-.85a69.545 69.545 0 0 0 12.08-9.94l4.65-5.805 1.235-1.13c0-.15 0-.3.035-.45l.5-.595a4.725 4.725 0 0 0 2.18-2.07 20.96 20.96 0 0 0 9.85-4.905c5.325-4.78 8.125-11.96 8.555-19.1.245-4.565-.445-9.345-2.995-13.13z" opacity=".5"/>
        <path fill="#FABA92" fill-rule="nonzero" d="M98 59.145l2.595 3.4c1.265 1.66 2.595 3.5 2.435 5.605-.18 2.265-.58 4.57-2.325 6.025 1.55.63 1.91-.5 3.205-1.565 1.295-1.065 2.16-2.54 2.955-4a87 87 0 0 0 4.555-9.915c.255-.665.5-1.4.26-2.07-.5-1.32-2.325-1.33-3.695-1.045-3.03.629-6 1.515-8.88 2.65"/>
        <path fill="#FF585B" fill-rule="nonzero" d="M130.91 110.215c1.845-6.685 2.21-13.73 2.275-20.685 0-2.105 0-4.23-.615-6.23-.685-2.205-2.065-4.13-3.575-5.865-7.265-8.42-15.5-15.29-25.96-11.455l-1.785 2.065c-1.345 5.85-7.86 13-11.65 17.635-2.5 3.09-3.62 6.76-3.77 10.74-.15 4.185 1 7.035 3.21 10.585a25.885 25.885 0 0 1 .53 25.795c6.395.94 13.125 1.595 19.37.325l21.97-22.91z"/>
        <path fill="#FABA92" fill-rule="nonzero" d="M89.63 32.925a116.23 116.23 0 0 0 .095 26.245c.031.594.182 1.176.445 1.71.675 1.17 2.215 1.5 3.565 1.5a16 16 0 0 0 10.58-3.88c1.32-1.15 2.5-2.67 2.53-4.42 0-1.655-1-3.125-2-4.435a83.81 83.81 0 0 0-11.5-12.11c-1.315-1.13-2.72-2.305-3.295-3.94M126.905 116.24a82.62 82.62 0 0 0 .115-1.69c.5-7.85.78-15.665 1.58-23.5.625-6.03 1.5-12.44-1.945-17.875l-12.93-8.835c-3.13.795-5.04 4-5.88 7.12-1.895 7.025-.14 14.44 1.085 21.615a145.9 145.9 0 0 1 1.965 18.67c.1 2.595.1 5.33-1.145 7.595-1.525 2.78-4.59 4.29-7.5 5.53-5.865 2.5-13.435.95-19.595 2.585-1.86.5-3.78.96-5.7.84l-2.895 6.535c6.565-3.265 15.305.935 22.625.5A84.785 84.785 0 0 0 107.59 134l19.315-17.76z"/>
        <path fill="#FF585B" fill-rule="nonzero" d="M129.325 84.115c-.04 9.62-.082 19.233-.125 28.84L121 123.18a69.555 69.555 0 0 1-14.97 11.73c-.94.555-1.9 1.085-2.875 1.58.122-.52.214-1.048.275-1.58.5-4.12-1.035-7.195-5.225-9.215 3.935-1.215 5.32-1.945 10.125-4.805.36-.21.89-1.355 1.145-1.675a2.08 2.08 0 0 0 .31-1.205 55.3 55.3 0 0 0-1.065-12.36c-1.785-9.525-5.15-18.92-5.735-28.615l-1.605-1.945c4.83-5.575 13.36-7.595 20.18-4.765 2.795 1.16 5.365 3.155 6.63 5.905 1.145 2.425 1.155 5.205 1.135 7.885z"/>
        <path fill="url(#e)" fill-rule="nonzero" d="M109.5 104.79s5.195 11.425 3.245 15.965c-1.95 4.54-14.54 4.935-14.54 4.935s9.5-3 10.385-5.32c.885-2.32.91-13 .26-15.19-.65-2.19.65-.39.65-.39z"/>
        <path fill="url(#f)" fill-rule="nonzero" d="M98.045 70.775c-.415 2.655 1.7 4.44 3.24 6.255 5.195 6.135 10 12.885 12.56 20.57 1.84 5.5-3.11 14.785 4.24 17.055 10.905 3.375 12.4-1.305 12.62-6.815.117-2.923.193-5.848.23-8.775.045-3.42 0-6.925-1.165-10.13-2.27-6.105-8.175-9.935-13.73-13.33-5.38-3.29-11.58-6.71-17.655-5.03"/>
        <path fill="#1A2146" fill-rule="nonzero" d="M54.595 135.5c3.19-1.29 6.29-2.95 9.695-3.455 3.405-.505 7.315.43 9.18 3.32.34.525.54 1.355 0 1.68a1.29 1.29 0 0 1-.625.13 71.56 71.56 0 0 1-17.88-1.58"/>
        <path fill="#FABA92" fill-rule="nonzero" d="M54.325 134.97c.5-.5 1.18-.855 1.74-1.33.56-.475 1.225-1.08 1.83-1.625a27.71 27.71 0 0 1 3.83-3c2.565-1.59 5.45-3.225 8.465-3.08 2.045.095 4.81 1.075 6.3 2.5.227.196.4.447.5.73.073.332.054.678-.055 1-.26 1.04.935 2 .42 2.955a4.64 4.64 0 0 1-3.46 2.22 3.94 3.94 0 0 1-2.25-.575 8.195 8.195 0 0 1-1.96-1.58 2.62 2.62 0 0 0-2.5-.85c-.95.22-1.861.581-2.705 1.07-3 1.455-4.32 3.045-10.06 1.78"/>
        <path fill="url(#g)" fill-rule="nonzero" d="M69.93 133.09c1.14 1 2.895.81 4.315.28 1.42-.53 2.78-1.34 4.295-1.425 1.515-.085 2.975.58 4.225 1.43l-2.675.05c-.5 0-1 .18-1.535.175-1 0-2.82.825-3.42 1.165-2.275 1.285-3.18.13-5.5-1.415"/>
        <path fill="url(#h)" fill-rule="nonzero" d="M57.555 135.575c3.05-.86 5.43-2.97 8.205-4.5.44-.24.42-.66 0-.38-2.585 1.74-4.945 3.415-8.16 4.8-.045 0 .05.075.05.105l-.095-.025z"/>
        <path fill="url(#i)" fill-rule="nonzero" d="M61.18 135c2.13-.6 4-2 5.955-3.105.85-.47.92-.89.115-.45-1.945 1.065-3.75 2.5-6.025 3.5-.045 0 .05.075.05.105l-.095-.05z"/>
        <path fill="url(#j)" fill-rule="nonzero" d="M55.715 135.26c2.695-1.19 5.32-3.385 7.655-5.115.4-.295.225-.595-.195-.315-1.9 1.265-4.72 4.215-7.47 5.43-.46.2-.445.205 0 0h.01z"/>
        <path fill="#FABA92" fill-rule="nonzero" d="M69.085 131.275a10.04 10.04 0 0 0-6.365 4.34.59.59 0 0 0-.135.42c.06.28.44.32.72.27 2.93-.5 4.915-4.205 8.55-2.55.25.115-.14-1.7-.115-1.97a.5.5 0 0 0-.17-.36 1.96 1.96 0 0 0-2.21-.415"/>
        <path fill="url(#k)" fill-rule="nonzero" d="M64.5 135.92c1.785-.5 3.13-2.5 5.47-2.5.4 0 .35-.27-.165-.235-2.59.17-3.465 1.92-5.255 2.69-.045 0-.105.075-.105.105l.055-.06z"/>
        <path fill="url(#l)" fill-rule="nonzero" d="M87.275 103.85c1.185 1.695 1.155 2.6 3.08 3.355 1.925.755 3.955 1.2 5.91 1.88a5 5 0 0 1 1.875 1 3.7 3.7 0 0 1 .94 3.08 10.31 10.31 0 0 1-1.06 3.15c-1.62 3.47-2.305 7.925-5.825 9.435.53-2.655.41-6.67.13-9.93-.36-4.195-3.295-8.5-5.13-12.075"/>
        <path fill="url(#m)" fill-rule="nonzero" d="M99.395 61.435l5.45 2.595 1.56-6.23s-2.855 3.89-7.01 3.635z"/>
        <path fill="url(#n)" fill-rule="nonzero" d="M86.96 40.22c1.23-.555 2.7.1 3.635 1.065.935.965 1.535 2.215 2.405 3.26 3.35 4.16 9.84 4.5 13.5 8.405-.08-2.93-1.935-5.5-3.71-7.81L97.29 38a9.31 9.31 0 0 0-2.07-2.18 4.64 4.64 0 0 0-7.175 3.06"/>
        <path fill="#FABA92" fill-rule="nonzero" d="M89.055 41.675s-.705 7.695-2.3 9.61c-.715.86 2.585.97 2.585.97l-.285-10.58z"/>
        <path fill="url(#o)" fill-rule="nonzero" d="M89.055 41.675s-.705 7.695-2.3 9.61c-.715.86 2.585.97 2.585.97l-.285-10.58z" opacity=".39"/>
        <path fill="#1A2146" fill-rule="nonzero" d="M90.24 43.56s4.19-.03 5.545 3.63a6.855 6.855 0 0 0-5.745-2.925l.2-.705z"/>
        <path fill="#91293B" fill-rule="nonzero" d="M89.725 58.97c0-.08-.03-.16-.04-.25-.035-.205-.065-.42-.095-.63a37.74 37.74 0 0 1-.15-1.23c0-.14-.04-.28-.055-.415L89.3 55.5a.045.045 0 0 0 0-.03h.055l.375.085c.16.037.312.065.455.085l.265.05h.13c1.226.24 2.49.192 3.695-.14.13-.03.25-.07.345-.1.154-.05.303-.114.445-.19 0 0-.555 2.185-2.115 3.305a3.57 3.57 0 0 1-.605.355l-.09.04-.23.085H92c-.17.05-.347.092-.53.125a2.5 2.5 0 0 1-.33.03 3.76 3.76 0 0 1-.575 0l-.23-.04a2.5 2.5 0 0 1-.6-.195l-.01.005z"/>
        <path fill="#FFF" fill-rule="nonzero" d="M89.39 56.445c1.44.5 3.835.805 5.64-1.11a3 3 0 0 0-.73.115c-.095.03-.215.07-.345.1a7.595 7.595 0 0 1-3.37.2 9.701 9.701 0 0 1-.815-.145c-.235-.05-.385-.17-.445.045a3.89 3.89 0 0 0 .065.795z"/>
        <path fill="#BA5427" fill-rule="nonzero" d="M93.08 58.575a3.5 3.5 0 0 1-.72.405l-.09.04-.23.085H92c-.17.05-.347.092-.53.125a2.5 2.5 0 0 1-.33.03 3.76 3.76 0 0 1-.575 0l-.23-.04a3.07 3.07 0 0 1-.605-.235c0-.08-.03-.16-.04-.25-.035-.205-.065-.42-.095-.63.81-.355 2.285-.735 3.375.535a.423.423 0 0 1 .11-.065z"/>
        <ellipse cx="92.342" cy="47.177" fill="#1A2146" fill-rule="nonzero" rx="1.125" ry="1" transform="rotate(-84.52 92.342 47.177)"/>
        <path fill="#1A2146" fill-rule="nonzero" d="M93.8 23.5c-6.13 5.345-4.865 16.79 2.285 20.67 1.745.945 3.705 1.5 5.395 2.5a10.445 10.445 0 0 1 4.875 8.46c.185 7-6.625 13.225-4.955 20s10.5 8.94 14.54 14.66c3.4 4.8 2.875 11.385 1 16.96-.295.88-.62 1.8-.435 2.71.285 1.39 1.655 2.255 2.97 2.79 6.625 2.705 14.63.715 19.955-4.065 5.325-4.78 8.125-11.96 8.555-19.1.275-4.555-.415-9.33-2.965-13.115-3.55-5.265-10-7.725-14.615-12.07a23.33 23.33 0 0 1-7.26-17.1c.07-4.695 1.16-10.42-2.605-13.215-1.165-.865-2.615-1.245-3.84-2-4.2-2.65-4.7-8.945-8.795-11.75-4.32-3-10.5-1-15.175 1.38a19.28 19.28 0 0 0-8.28 8.06c-.935 1.785-1.725 3.765-1.665 5.815.055 1.97 1.135 3.61 1.785 5.415.615 1.715 1.135 3-1.235 5.25C90.465 42.5 92 36.05 91.37 29.595"/>
        <path fill="#000" fill-rule="nonzero" d="M109.31 113.085v.03c.345-2.28-.105-5-.345-7.385a25.51 25.51 0 0 0-.11-1 51.565 51.565 0 0 0-1.085-6.055 32.355 32.355 0 0 1 1.31 5.17c.05.31.11.635.155.97.385 2.59.815 5.685.075 8.27z"/>
        <path fill="#000" fill-rule="nonzero" d="M109.25 104.795c-.075.31-.17.625-.27.935a25.51 25.51 0 0 0-.11-1c.08-.295.15-.59.225-.885a56.925 56.925 0 0 0 1.26-7.845 36.895 36.895 0 0 1-1.105 8.795z"/>
    </g>
</svg>
